midterm project
…
data_filtered <- Tob.Use %>%
  filter(state %in% c('AL', 'AK'), year >= 2017 & year <= 2019) %>%
  filter(!is.na(data_value))
data_filtered$data_value <- as.numeric(as.character(data_filtered$data_value))
age_tobacco_summary <- data_filtered %>%
  group_by(state, topicdesc, age) %>%
  summarise(mean_usage = mean(data_value, na.rm = TRUE),
            count = n())

`summarise()` has grouped output by 'state', 'topicdesc'. You can override
using the `.groups` argument.

print(age_tobacco_summary)

# A tibble: 50 × 5
# Groups:   state, topicdesc [8]
   state topicdesc                age                mean_usage count
   <chr> <chr>                    <chr>                   <dbl> <int>
 1 AK    Cessation (Adults)       All Ages                 55.4    13
 2 AK    Cigarette Use (Adults)   18 to 24 Years           15.5     2
 3 AK    Cigarette Use (Adults)   18 to 44 Years           18.8     2
 4 AK    Cigarette Use (Adults)   25 to 44 Years           22.0     2
 5 AK    Cigarette Use (Adults)   45 to 64 Years           17.7     2
 6 AK    Cigarette Use (Adults)   65 Years and Older       12.6     2
 7 AK    Cigarette Use (Adults)   Age 20 and Older         27.6     6
 8 AK    Cigarette Use (Adults)   Age 25 and Older         29.9     7
 9 AK    Cigarette Use (Adults)   All Ages                 33.4    44
10 AK    E-Cigarette Use (Adults) 18 to 24 Years           18.9     1
# ℹ 40 more rows
…
